<?xml version="1.0" encoding="UTF-8"?>
<svg width="512px" height="332px" viewBox="0 0 512 332" version="1.1" xmlns="http://www.w3.org/2000/svg" xmlns:xlink="http://www.w3.org/1999/xlink">
    <title>Lemmy</title>
    <g id="All-Fediverse-Symbols" stroke="none" stroke-width="1" fill="none" fill-rule="evenodd">
        <g id="Lemmy" transform="translate(0.000000, -90.000000)" fill="#000000">
            <path d="M397.052766,104.831548 C414.237987,94.9074021 432.111984,89.7104271 448.862875,90.0124577 C451.255857,90.0556089 453.625872,90.2117664 455.967716,90.4815792 C474.702445,92.6400593 491.576901,102.609803 501.921745,120.033092 C512.058348,137.105618 514.552409,155.904403 509.386162,173.323537 C504.219915,190.742677 491.705218,206.568495 473.177459,219.105843 C473.065651,219.181384 472.95189,219.254001 472.836299,219.323612 C457.040804,228.851055 441.314131,235.29364 424.481137,238.651921 C424.808584,245.724761 424.695533,252.976446 424.126979,260.383267 C422.40558,282.808666 414.161979,303.446382 401.866945,321.657476 L443.200661,338.536158 C447.806567,340.344148 450.044477,345.571227 448.17456,350.153662 C446.304644,354.736097 441.049373,356.903409 436.494383,354.970636 L390.711476,336.273968 C382.018083,346.452384 372.09857,355.680947 361.486318,363.807055 C361.301529,363.948557 361.113756,364.085477 360.928545,364.226341 L388.855117,401.217736 C391.879748,405.127026 391.128988,410.754864 387.185456,413.733966 C383.241923,416.713067 377.625303,415.895402 374.694176,411.915481 L346.359285,374.383456 C331.167711,384.074517 315.061255,391.684641 299.142411,396.795191 C290.958621,411.634102 274.819204,422 256,422 C237.357864,422 221.227796,412.366618 212.975627,397.233981 C196.896071,392.214886 180.59887,384.632398 165.246467,374.905663 L137.305809,411.915481 C134.374683,415.895402 128.758062,416.713067 124.81453,413.733966 C120.870997,410.754864 120.120238,405.127026 123.144868,401.217736 L150.655548,364.777804 C150.242999,364.4654 149.826956,364.158394 149.416536,363.842812 C138.676715,355.584638 128.669377,346.178894 119.959604,335.790757 L72.9929144,354.970636 C68.4379247,356.903409 63.1826541,354.736097 61.3127374,350.153662 C59.4428207,345.571227 61.6807308,340.344148 66.2866368,338.536158 L108.989334,321.097342 C97.0734289,302.994563 89.2173232,282.510097 87.864345,260.260842 C87.4166665,252.898653 87.4053875,245.710499 87.8188741,238.713678 C70.8723305,235.372476 55.0532345,228.90778 39.1637029,219.323612 C39.0481123,219.254001 38.9343516,219.181384 38.8225429,219.105843 C20.2947807,206.568501 7.78009463,190.742677 2.61384071,173.323537 C-2.55241376,155.904403 -0.0583433904,137.105618 10.0782566,120.033092 C20.4231137,102.609809 37.2975569,92.6400593 56.0322859,90.4815792 C58.3741305,90.2117664 60.7441449,90.0556144 63.1371277,90.0124577 C63.660593,90 64.1852062,90 64.7108065,90 C81.0045087,90.0401934 98.2990328,95.2175592 114.94722,104.831576 C127.970577,112.352314 139.6826,123.986354 148.7158,136.613859 C148.786901,136.716559 148.855512,136.820961 148.921578,136.926973 C175.809488,121.681446 211.406667,113.250179 255.873273,112.523898 C259.570425,112.463456 263.208242,112.463639 266.786138,112.522788 C306.675368,113.182232 339.141454,121.225421 364.093231,135.509823 C373.012997,123.311406 384.410983,112.131931 397.052766,104.831548 Z M256.000463,343.510345 C235.626629,343.510345 222.178296,356.926912 222.633891,375.058591 C223.112646,394.111913 236.727722,407 256.000463,407 C274.487921,407 289.323819,392.470622 289.364842,375.236081 C289.408337,356.780479 276.220324,343.510345 256.000463,343.510345 Z M178.391906,274 C165.472908,274 155,284.511883 155,297.478955 C155,310.446016 165.472908,320.957905 178.391906,320.957905 C191.310893,320.957905 201.783807,310.446016 201.783807,297.478955 C201.783807,284.511883 191.310899,274 178.391906,274 Z M333.821654,274.214351 C321.020603,274.214351 310.643302,284.630263 310.643302,297.478955 C310.643302,310.327636 321.020603,320.743555 333.821654,320.743555 C346.622699,320.743555 357,310.327636 357,297.478955 C357,284.630263 346.622704,274.214351 333.821654,274.214351 Z"></path>
        </g>
    </g>
</svg>