<?xml version="1.0" encoding="UTF-8"?>
<svg width="512px" height="512px" viewBox="0 0 512 512" version="1.1" xmlns="http://www.w3.org/2000/svg" xmlns:xlink="http://www.w3.org/1999/xlink">
    <title>Mobileizon</title>
    <g id="All-Fediverse-Symbols" stroke="none" stroke-width="1" fill="none" fill-rule="evenodd">
        <g id="Mobilizon" fill="#000000">
            <path d="M451.490909,0 C484.909157,0 512,27.0908428 512,60.5090909 L512,451.490909 C512,484.909157 484.909157,512 451.490909,512 L60.5090909,512 C27.0908428,512 0,484.909157 0,451.490909 L0,60.5090909 C0,27.0908428 27.0908428,0 60.5090909,0 L451.490909,0 Z M336.150489,195.053985 C291.144601,155.201414 223.522066,155.201414 178.516178,195.053985 C153.727615,219.929825 141.333333,255.787154 141.333333,302.625971 C141.333333,349.464789 153.727615,385.292989 178.516178,410.110572 C223.522066,449.963143 291.144601,449.963143 336.150489,410.110572 C360.939052,385.05996 373.333333,349.23176 373.333333,302.625971 C373.333333,255.787154 360.939052,219.929825 336.150489,195.053985 Z M257.333333,221.063291 C288.266667,221.063291 303.733333,249.78903 303.733333,307.240506 C303.733333,364.691983 288.266667,393.417722 257.333333,393.417722 C226.4,393.417722 210.933333,364.691983 210.933333,307.240506 C210.933333,249.78903 226.4,221.063291 257.333333,221.063291 Z M289.364723,79.6910373 C279.785328,74.1494812 268.972834,71.5153417 258.095985,72.0733485 C246.743748,71.6658785 235.474793,74.2835306 225.301943,79.6910373 C221.847623,88.279281 220.115527,97.5476244 220.217596,106.897069 C220.115527,116.246513 221.847623,125.514857 225.301943,134.1031 C234.786274,139.910319 245.672079,142.562319 256.570681,141.720789 C267.943675,142.389711 279.274268,139.757741 289.364723,134.1031 C292.819043,125.514857 294.55114,116.246513 294.449071,106.897069 C294.55114,97.5476244 292.819043,88.279281 289.364723,79.6910373 Z" id="Mobileizon"></path>
        </g>
    </g>
</svg>