<?xml version="1.0" encoding="UTF-8"?>
<svg width="512px" height="234px" viewBox="0 0 512 234" version="1.1" xmlns="http://www.w3.org/2000/svg" xmlns:xlink="http://www.w3.org/1999/xlink">
    <title>Nextcloud Social</title>
    <g id="All-Fediverse-Symbols" stroke="none" stroke-width="1" fill="none" fill-rule="evenodd">
        <g id="Nextcloud-Social" transform="translate(0.000000, -139.000000)" fill="#000000" fill-rule="nonzero">
            <path d="M256.390212,139 C203.319859,139 158.338334,174.978203 144.397066,223.724597 C132.280647,197.868771 106.02395,179.754592 75.7807916,179.754592 C34.1892901,179.754592 0,213.943895 0,255.535374 C0,297.126799 34.1892901,331.331707 75.7807916,331.331707 C106.02395,331.331707 132.280647,313.206451 144.39707,287.346084 C158.338339,336.096187 203.319859,372.086348 256.390212,372.086348 C309.068079,372.086348 353.820244,336.638993 368.11808,288.438746 C380.458333,313.712035 406.390057,331.331707 436.203654,331.331707 C477.795156,331.331707 512,297.126799 512,255.535374 C512,213.943895 477.795156,179.754592 436.203654,179.754592 C406.390057,179.754592 380.458333,197.363227 368.11808,222.631985 C353.820244,174.435504 309.068079,139 256.390212,139 Z M256.390212,183.485098 C296.452343,183.485098 328.45611,215.47337 328.45611,255.535374 C328.45611,295.597311 296.452343,327.601223 256.390212,327.601223 C216.328329,327.601223 184.340053,295.597311 184.340053,255.535374 C184.340053,215.47337 216.328324,183.485098 256.390212,183.485098 Z M75.7807916,224.239694 C93.3328517,224.239694 107.092031,237.98322 107.092031,255.535374 C107.092031,273.087461 93.3328517,286.846609 75.7807916,286.846609 C58.2286866,286.846609 44.4850169,273.087461 44.4850169,255.535374 C44.4850169,237.98322 58.2286866,224.239694 75.7807916,224.239694 L75.7807916,224.239694 Z M436.203654,224.239694 C453.755894,224.239694 467.514938,237.98322 467.514938,255.535374 C467.514938,273.087461 453.755804,286.846609 436.203654,286.846609 C418.651684,286.846609 404.908032,273.087461 404.908032,255.535374 C404.908032,237.98322 418.651729,224.239694 436.203654,224.239694 L436.203654,224.239694 Z"></path>
        </g>
    </g>
</svg>