<?xml version="1.0" encoding="UTF-8"?>
<svg width="512px" height="512px" viewBox="0 0 512 512" version="1.1" xmlns="http://www.w3.org/2000/svg" xmlns:xlink="http://www.w3.org/1999/xlink">
    <title>Plume</title>
    <g id="All-Fediverse-Symbols" stroke="none" stroke-width="1" fill="none" fill-rule="evenodd">
        <g id="Plume" fill="#000000" fill-rule="nonzero">
            <path d="M35.921749,486.79717 C-4.00558708,527.365488 -6.63585162,515.191909 8.60920765,477.006234 L54.7125834,397.556941 C61.0158724,399.139307 108.928611,181.899239 268.378655,77.685814 C232.387913,139.30918 253.088026,151.06301 253.088026,151.06301 C281.725702,65.3317866 306.370702,30.9908834 512,0 C452.82478,44.5476851 486.81638,160.99346 316.339932,215.483106 C365.8409,204.817669 417.117354,181.38556 439.976523,154.350591 C427.273446,241.785741 237.461362,389.460214 108.848051,407.98866 L35.921749,486.79717 Z"></path>
        </g>
    </g>
</svg>